{
    "m_SelectedDeviceId": "R58M45Q0DFD",
    "m_SelectedPackage": {
        "deviceId": "R58M45Q0DFD",
        "name": "com.denisimus.it.Liquidator",
        "processId": 11566,
        "exited": false
    },
    "m_SelectedPriority": 0,
    "m_KnownPackagesForSerialization": [
        {
            "deviceId": "192.168.1.100:40443",
            "name": "com.denisimus.it.Liquidator",
            "processId": 29035,
            "exited": false
        },
        {
            "deviceId": "R58M45Q0DFD",
            "name": "com.denisimus.it.Liquidator",
            "processId": 15831,
            "exited": false
        },
        {
            "deviceId": "R58M45Q0DFD",
            "name": "com.denisimus.it.Liquidator",
            "processId": 22522,
            "exited": false
        },
        {
            "deviceId": "R58M45Q0DFD",
            "name": "com.denisimus.it.Liquidator",
            "processId": 30370,
            "exited": false
        },
        {
            "deviceId": "R58M45Q0DFD",
            "name": "com.denisimus.it.Liquidator",
            "processId": 11566,
            "exited": false
        },
        {
            "deviceId": "192.168.1.100:46027",
            "name": "com.denisimus.it.Liquidator",
            "processId": 13018,
            "exited": false
        }
    ],
    "m_Tags": {
        "m_Entries": [
            {
                "m_Name": "Filter by all listed tags",
                "m_Selected": false
            },
            {
                "m_Name": "No Filter",
                "m_Selected": true
            },
            {
                "m_Name": "",
                "m_Selected": false
            },
            {
                "m_Name": "Tag Control...",
                "m_Selected": false
            },
            {
                "m_Name": "",
                "m_Selected": false
            },
            {
                "m_Name": "Unity",
                "m_Selected": false
            },
            {
                "m_Name": "CRASH",
                "m_Selected": false
            }
        ]
    },
    "m_MemoryViewerState": {
        "MemoryWindowHeight": 300.0,
        "MemoryWindowWidth": 170.0,
        "MemoryTypeEnabled": [
            true,
            true,
            true,
            true,
            true,
            true,
            true,
            true,
            true,
            true
        ],
        "MemoryGroup": 2,
        "Behavior": 0
    },
    "m_FilterOptions": {
        "m_Filter": "",
        "m_UseRegularExpressions": false,
        "m_MatchCase": false
    },
    "m_SymbolPaths": [],
    "m_CaptureVideoSettings": {
        "TimeLimitEnabled": false,
        "TimeLimit": 180,
        "VideoSizeEnabled": false,
        "VideoSizeX": 1280,
        "VideoSizeY": 720,
        "BitRateEnabled": false,
        "BitRateK": 20000,
        "DisplayIdEnabled": false,
        "DisplayId": ""
    }
}